^C:\USERS\משתמש\TS-ANTIVIRUS\SERVER\SERVER\X64\DEBUG\COMMUNICATOR.OBJ|C:\USERS\משתמש\TS-ANTIVIRUS\SERVER\SERVER\X64\DEBUG\DYNAMICSCANHELPER.OBJ|C:\USERS\משתמש\TS-ANTIVIRUS\SERVER\SERVER\X64\DEBUG\ENCRYPTION.OBJ|C:\USERS\משתמש\TS-ANTIVIRUS\SERVER\SERVER\X64\DEBUG\FILE.OBJ|C:\USERS\משתמש\TS-ANTIVIRUS\SERVER\SERVER\X64\DEBUG\IDATABASE.OBJ|C:\USERS\משתמש\TS-ANTIVIRUS\SERVER\SERVER\X64\DEBUG\JSONREQUESTPACKETDESERIALIZER.OBJ|C:\USERS\משתמש\TS-ANTIVIRUS\SERVER\SERVER\X64\DEBUG\JSONRESPONSEPACKETSERIALIZER.OBJ|C:\USERS\משתמש\TS-ANTIVIRUS\SERVER\SERVER\X64\DEBUG\LOGGEDUSER.OBJ|C:\USERS\משתמש\TS-ANTIVIRUS\SERVER\SERVER\X64\DEBUG\LOGINMANAGER.OBJ|C:\USERS\משתמש\TS-ANTIVIRUS\SERVER\SERVER\X64\DEBUG\LOGINREQUESTHANDLER.OBJ|C:\USERS\משתמש\TS-ANTIVIRUS\SERVER\SERVER\X64\DEBUG\MENUREQUESTHANDLER.OBJ|C:\USERS\משתמש\TS-ANTIVIRUS\SERVER\SERVER\X64\DEBUG\REQUESTHANDLERFACTORY.OBJ|C:\USERS\משתמש\TS-ANTIVIRUS\SERVER\SERVER\X64\DEBUG\SERVER.OBJ|C:\USERS\משתמש\TS-ANTIVIRUS\SERVER\SERVER\X64\DEBUG\SOURCE.OBJ|C:\USERS\משתמש\TS-ANTIVIRUS\SERVER\SERVER\X64\DEBUG\SQLITE3.OBJ|C:\USERS\משתמש\TS-ANTIVIRUS\SERVER\SERVER\X64\DEBUG\SQLITEDATABASE.OBJ|C:\USERS\משתמש\TS-ANTIVIRUS\SERVER\SERVER\X64\DEBUG\STATICSCANHELPER.OBJ|C:\USERS\משתמש\TS-ANTIVIRUS\SERVER\SERVER\X64\DEBUG\UTILITIES.OBJ|C:\USERS\משתמש\TS-ANTIVIRUS\SERVER\SERVER\X64\DEBUG\VMHELPER.OBJ|C:\USERS\משתמש\TS-ANTIVIRUS\SERVER\SERVER\X64\DEBUG\WSAINITIALIZER.OBJ
C:\USERS\משתמש\TS-ANTIVIRUS\SERVER\X64\DEBUG\SERVER.EXE
C:\USERS\משתמש\TS-ANTIVIRUS\SERVER\X64\DEBUG\SERVER.ILK
C:\USERS\משתמש\TS-ANTIVIRUS\SERVER\X64\DEBUG\SERVER.PDB
