^C:\Users\משתמש\ts-antivirus\Server\x64\Debug\Server.exe
C:\Users\משתמש\ts-antivirus\Server\Server\x64\Debug\vcpkg.applocal.log
^C:\Users\משתמש\ts-antivirus\Server\x64\Debug\Server.exe
C:\Users\משתמש\ts-antivirus\Server\Server\x64\Debug\vcpkg.applocal.log
